<?xml version="1.0" encoding="UTF-8"?>
<svg width="1476px" height="1281px" viewBox="0 0 1476 1281" version="1.1" xmlns="http://www.w3.org/2000/svg" xmlns:xlink="http://www.w3.org/1999/xlink">
    <!-- Generator: Sketch 50.2 (55047) - http://www.bohemiancoding.com/sketch -->
    <title>Rectangle Copy</title>
    <desc>Created with Sketch.</desc>
    <defs>
        <linearGradient x1="58.9206159%" y1="0%" x2="58.9206159%" y2="98.4013728%" id="linearGradient-1">
            <stop stop-color="#005EB8" stop-opacity="0.95" offset="0%"></stop>
            <stop stop-color="#0097DD" stop-opacity="0.85" offset="100%"></stop>
        </linearGradient>
    </defs>
    <g id="Page-1" stroke="none" stroke-width="1" fill="none" fill-rule="evenodd">
        <path d="M0,0 L1475.24546,0 C1366.87429,66.3215722 1322.87316,116.05486 1266.5183,180.823999 C1125.8696,342.472792 1086.84537,508.899704 1086.84537,609.249325 C1086.84537,688.768012 1117.65115,851.427037 1198.24036,994.907149 C1260.10093,1105.04301 1352.56207,1195.30801 1475.24546,1280.02383 L0,1280.02383 L0,0 Z" id="Rectangle-Copy" fill="url(#linearGradient-1)"></path>
    </g>
</svg>